{
    "statusCode":  200,
    "message":  "Funds retrieved successfully",
    "data":  [
                 {
                     "id":  "692dd55007985839e6b28d4c",
                     "fundId":  "UNION_MUTUAL_FUND_MID_CAP_57",
                     "name":  "Union Mid Cap Fund",
                     "category":  "Equity",
                     "subCategory":  "Mid Cap",
                     "fundType":  "mutual_fund",
                     "fundHouse":  "Union Mutual Fund",
                     "currentNav":  255.99188642613575,
                     "previousNav":  253.4319675618744,
                     "navDate":  "2025-12-01T17:50:08.610Z",
                     "returns":  {
                                     "day":  0.6422275542244278,
                                     "week":  3.401291944837899,
                                     "month":  5.682549736706168,
                                     "threeMonth":  12.164397215467401,
                                     "sixMonth":  24.61779889118442,
                                     "oneYear":  40.34572861249253,
                                     "threeYear":  28.95096361681913,
                                     "fiveYear":  21.143870466516773,
                                     "sinceInception":  20.516419310524093
                                 },
                     "riskMetrics":  {
                                         "sharpeRatio":  1.9661661649917748,
                                         "standardDeviation":  16.654452748462994
                                     },
                     "aum":  29821.271938271202,
                     "expenseRatio":  1.2386283683761172,
                     "ratings":  {
                                     "morningstar":  5,
                                     "crisil":  4,
                                     "valueResearch":  3
                                 },
                     "popularity":  1086
                 },
                 {
                     "id":  "692dd55007985839e6b28d52",
                     "fundId":  "KOTAK_MUTUAL_FUND_SMALL_CAP_63",
                     "name":  "Kotak Small Cap Fund",
                     "category":  "Equity",
                     "subCategory":  "Small Cap",
                     "fundType":  "mutual_fund",
                     "fundHouse":  "Kotak Mutual Fund",
                     "currentNav":  148.47053585282535,
                     "previousNav":  146.9858304942971,
                     "navDate":  "2025-12-01T17:50:08.610Z",
                     "returns":  {
                                     "day":  0.40032235065476984,
                                     "week":  3.941025716890014,
                                     "month":  8.232878575394107,
                                     "threeMonth":  17.564805203340168,
                                     "sixMonth":  30.86127252694724,
                                     "oneYear":  51.23898797937414,
                                     "threeYear":  30.508470706342557,
                                     "fiveYear":  26.656149184148845,
                                     "sinceInception":  21.816392815880764
                                 },
                     "riskMetrics":  {
                                         "sharpeRatio":  1.567834690192808,
                                         "standardDeviation":  16.504978207703203
                                     },
                     "aum":  8907.388736152017,
                     "expenseRatio":  1.3340267506360102,
                     "ratings":  {
                                     "morningstar":  4,
                                     "crisil":  4,
                                     "valueResearch":  3
                                 },
                     "popularity":  1077
                 },
                 {
                     "id":  "692dd55007985839e6b28d7f",
                     "fundId":  "DSP_MUTUAL_FUND_GOLD_108",
                     "name":  "DSP Gold ETF",
                     "category":  "Commodity",
                     "subCategory":  "Gold Fund",
                     "fundType":  "etf",
                     "fundHouse":  "DSP Mutual Fund",
                     "currentNav":  91.04370405700033,
                     "previousNav":  90.13326701643032,
                     "navDate":  "2025-12-01T17:50:08.610Z",
                     "returns":  {
                                     "day":  0.8683640088010206,
                                     "week":  1.291067279616733,
                                     "month":  2.287305673755397,
                                     "threeMonth":  7.69073785351484,
                                     "sixMonth":  8.969307421381004,
                                     "oneYear":  19.03900084892133,
                                     "threeYear":  13.118366675035372,
                                     "fiveYear":  10.545918696372024,
                                     "sinceInception":  10.710362947643748
                                 },
                     "riskMetrics":  {
                                         "sharpeRatio":  0.9324251684304387,
                                         "standardDeviation":  9.351986789004041
                                     },
                     "aum":  2008.3147757422234,
                     "expenseRatio":  0.6547389775421577,
                     "ratings":  {
                                     "morningstar":  4,
                                     "crisil":  5
                                 },
                     "popularity":  1051
                 },
                 {
                     "id":  "692dd55007985839e6b28d6a",
                     "fundId":  "UTI_MUTUAL_FUND_MULTI_CAP_87",
                     "name":  "UTI Multi Cap Fund",
                     "category":  "Equity",
                     "subCategory":  "Multi Cap",
                     "fundType":  "mutual_fund",
                     "fundHouse":  "UTI Mutual Fund",
                     "currentNav":  129.7738997391823,
                     "previousNav":  128.47616074179047,
                     "navDate":  "2025-12-01T17:50:08.610Z",
                     "returns":  {
                                     "day":  0.8025203150971606,
                                     "week":  3.2077169236989893,
                                     "month":  6.073885125720789,
                                     "threeMonth":  13.359512195380649,
                                     "sixMonth":  23.896318354832587,
                                     "oneYear":  37.08913479209775,
                                     "threeYear":  22.638697184460522,
                                     "fiveYear":  21.57701789162651,
                                     "sinceInception":  18.75761847960856
                                 },
                     "riskMetrics":  {
                                         "sharpeRatio":  1.9304696067378786,
                                         "standardDeviation":  13.43835278130928
                                     },
                     "aum":  24621.590608699764,
                     "expenseRatio":  1.2332907013149885,
                     "ratings":  {
                                     "morningstar":  4,
                                     "crisil":  5,
                                     "valueResearch":  3
                                 },
                     "popularity":  1050
                 },
                 {
                     "id":  "692dd55007985839e6b28d31",
                     "fundId":  "AXIS_MUTUAL_FUND_MID_CAP_30",
                     "name":  "Axis Midcap Fund",
                     "category":  "Equity",
                     "subCategory":  "Mid Cap",
                     "fundType":  "mutual_fund",
                     "fundHouse":  "Axis Mutual Fund",
                     "currentNav":  78.45,
                     "previousNav":  77.66550000000001,
                     "navDate":  "2025-12-01T17:50:08.610Z",
                     "returns":  {
                                     "day":  0.45,
                                     "week":  2.34,
                                     "month":  5.67,
                                     "threeMonth":  12.45,
                                     "sixMonth":  22.34,
                                     "oneYear":  38.9,
                                     "threeYear":  25.67,
                                     "fiveYear":  21.45,
                                     "sinceInception":  18.9
                                 },
                     "riskMetrics":  {
                                         "sharpeRatio":  1.67,
                                         "standardDeviation":  15.23
                                     },
                     "aum":  18500,
                     "expenseRatio":  1.15,
                     "ratings":  {
                                     "morningstar":  5,
                                     "crisil":  5,
                                     "valueResearch":  5
                                 },
                     "popularity":  1039
                 }
             ],
    "pagination":  {
                       "total":  962,
                       "page":  1,
                       "limit":  5,
                       "totalPages":  193,
                       "hasNext":  true,
                       "hasPrev":  false
                   },
    "timestamp":  "2025-12-20T17:32:56.409Z"
}
